coding-snippet - Altering
…
[300 rows x 5 columns]

df_reordered = customers %>% 
  select(customer_name, email, everything()) # move name to beginning

df_reordered_2 = customers %>% 
  relocate(customer_id, .after = last_col()) # move name to end

df_reordered_3 = customers %>% 
  relocate(email, .before = "customer_name") # move name to end

df_reordered_3

# A tibble: 300 × 5
   customer_id                          email customer_name phone_number address
   <chr>                                <chr> <chr>         <chr>        <chr>  
 1 8ab2552b-e4c9-471d-bdf1-ff6e225860e1 jane… Anthony Guer… 659.461.7580 "963 R…
 2 57a7c826-f022-4f6c-9a21-81d5f99da142 xben… Elizabeth Ne… 001-555-635… "5745 …
 3 6ff9e916-8596-4fc6-a224-fd1a6e163837 cjac… Gabrielle Ch… 943-259-602… "165 R…
 4 0706dd55-3603-4985-8136-76872925d39c ryan… Megan Elliott (668)271-02… "049 A…
 5 aa8662fc-f9c0-4e56-a498-693df376020a broo… Kristin James 815-164-705… "2048 …
 6 02306791-9603-4a34-b4c8-e6a7019fbe7f henr… Tyler Greene  0769607875   "344 D…
 7 43976a56-94e0-4769-b7e8-c9f15d4a8511 caro… Tammy Schwar… (877)554-18… "0870 …
 8 ae209764-c4b2-4c27-82f7-d41f7e71aded king… Sarah Kennedy 001-784-128… "609 S…
 9 0230e24e-48c2-44ec-bbe8-f6aff9029bed mich… Kevin Hodges  001-969-144… "23923…
10 6f7a4a4e-a87a-4f6d-927f-a8e2978b00a7 will… Nathan Mitch… 085.010.406… "053 B…
# ℹ 290 more rows
…
[300 rows x 5 columns]

Renaming specific columns

renamed = customers %>% 
  rename(
    Name = customer_name,
    E_Mail = email
  )
renamed

# A tibble: 300 × 5
   customer_id                          Name         E_Mail phone_number address
   <chr>                                <chr>        <chr>  <chr>        <chr>  
 1 8ab2552b-e4c9-471d-bdf1-ff6e225860e1 Anthony Gue… janet… 659.461.7580 "963 R…
 2 57a7c826-f022-4f6c-9a21-81d5f99da142 Elizabeth N… xbent… 001-555-635… "5745 …
 3 6ff9e916-8596-4fc6-a224-fd1a6e163837 Gabrielle C… cjack… 943-259-602… "165 R…
 4 0706dd55-3603-4985-8136-76872925d39c Megan Ellio… ryan8… (668)271-02… "049 A…
 5 aa8662fc-f9c0-4e56-a498-693df376020a Kristin Jam… brook… 815-164-705… "2048 …
 6 02306791-9603-4a34-b4c8-e6a7019fbe7f Tyler Greene henry… 0769607875   "344 D…
 7 43976a56-94e0-4769-b7e8-c9f15d4a8511 Tammy Schwa… carol… (877)554-18… "0870 …
 8 ae209764-c4b2-4c27-82f7-d41f7e71aded Sarah Kenne… kingr… 001-784-128… "609 S…
 9 0230e24e-48c2-44ec-bbe8-f6aff9029bed Kevin Hodges micha… 001-969-144… "23923…
10 6f7a4a4e-a87a-4f6d-927f-a8e2978b00a7 Nathan Mitc… willi… 085.010.406… "053 B…
# ℹ 290 more rows
…
