coding-snippet - Window functions
…
result

# A tibble: 500 × 9
   customer_id        product_name price quantity total_cost order_date         
   <chr>              <chr>        <dbl>    <dbl>      <dbl> <dttm>             
 1 0b18417b-543d-429… conference    573.        4      2291. 2023-01-01 00:00:00
 2 0e683879-4049-438… author        789.        1       789. 2023-01-01 00:00:00
 3 c9b595f2-b44b-4b0… teach         245.        3       736. 2023-01-03 00:00:00
 4 c9b595f2-b44b-4b0… day           875.        2      1749. 2023-01-04 00:00:00
 5 2c1823ce-2ca8-440… recent        135.        1       135. 2023-01-05 00:00:00
 6 e3c0eb04-ba9b-4fe… act           422.        3      1267. 2023-01-05 00:00:00
 7 6680325a-df9b-407… we            120.        1       120. 2023-01-06 00:00:00
 8 b7887f71-9683-470… drive         162.        4       648. 2023-01-06 00:00:00
 9 0e683879-4049-438… fast          440.        1       440. 2023-01-08 00:00:00
10 e32da01f-81f0-4da… there         913.        1       913. 2023-01-09 00:00:00
# ℹ 490 more rows
# ℹ 3 more variables: avg_3_rows <dbl>, running_sum <dbl>,
#   orders_per_cust <int>
